Name,WeightClassKg,Division,Sex,Best3SquatKg,Best3BenchKg,Best3DeadliftKg,TotalKg,Event,Equipment,Place
S. Cayer,44,Open,F,61.24,29.48,79.83,170.55,SBD,Single-ply,1
C. Dionne,48,Open,F,86.18,61.24,108.86,256.28,SBD,Single-ply,1
D. Morel,56,Open,F,68.04,45.36,90.72,204.12,SBD,Single-ply,1
M. Gagnon,67.5,Open,F,81.65,40.82,127.01,249.48,SBD,Single-ply,1
L. Petrovitch,75,Open,F,108.86,58.97,127.01,294.84,SBD,Single-ply,1
