Place,Name,Sex,Event,Division,WeightClassKg,Equipment,BirthYear,Team,State,BodyweightKg,Squat1Kg,Squat2Kg,Squat3Kg,Best3SquatKg,Bench1Kg,Bench2Kg,Bench3Kg,Best3BenchKg,Deadlift1Kg,Deadlift2Kg,Deadlift3Kg,Best3DeadliftKg,TotalKg,Age,BirthDate
1,Marie Brenden,F,B,F-M2,84,Single-ply,1964,The Iron Maidens,WA,79.7,,,,,102.5,107.5,112.5,112.5,,,,,112.5,,
1,Danna Snow,F,B,FR-G,57,Raw,1969,,WA,53.75,,,,,60,65,70,70,,,,,70,,
1,Ruth Kirby,F,B,FR-M2,57,Raw,1960,,WA,52.65,,,,,-55,-55,55,55,,,,,55,,
1,Vanessa McCaleb,F,B,FR-M2,84,Raw,1968,,VA,74.15,,,,,82.5,92.5,-102.5,92.5,,,,,92.5,,
2,Sue Dillard,F,B,FR-M2,84,Raw,1962,,VA,82.9,,,,,-65,-65,65,65,,,,,65,,
3,Jill Singer,F,B,FR-M2,84,Raw,1967,,ID,78.2,,,,,57.5,60,-62.5,60,,,,,60,,
1,Cynthia Zinzow,F,B,FR-O,57,Raw,1981,,NY,55.9,,,,,60,-65,-65,60,,,,,60,,
1,Tal Zaccai,F,B,FR-O,63,Raw,1987,,WA,62.9,,,,,72.5,-75,-75,72.5,,,,,72.5,,
2,Jane Fiordeliso,F,B,FR-O,63,Raw,1997,,PA,59.4,,,,,50,52.5,55,55,,,,,55,,
1,Kristyn Neville,F,B,FR-O,72,Raw,1989,,ID,69.2,,,,,72.5,75,-77.5,75,,,,,75,,
1,Vanessa McCaleb,F,B,FR-O,84,Raw,1968,,VA,74.15,,,,,82.5,92.5,-102.5,92.5,,,,,92.5,,
2,Jill Singer,F,B,FR-O,84,Raw,1967,,ID,78.2,,,,,57.5,60,-62.5,60,,,,,60,,
1,Jessica Cornell,F,B,FR-O,84+,Raw,1987,,DE,86.1,,,,,52.5,57.5,62.5,62.5,,,,,62.5,,
1,Ruth Kirby,F,D,FR-M2,57,Raw,1960,,WA,52.65,,,,,,,,,110,115,122.5,122.5,122.5,,
DQ,Sue Dillard,F,D,FR-M2,84,Raw,1962,,VA,82.9,,,,,,,,,-120,-120,-120,,,,
1,Lyn Lawton,F,D,FR-M3,72,Raw,1956,,NY,71.6,,,,,,,,,85,90,95,95,95,,
1,Debbie Thornton,F,D,FR-M3,84+,Raw,1954,,OR,87.3,,,,,,,,,120,125,-130,125,125,,
1,Tal Zaccai,F,D,FR-O,63,Raw,1987,,WA,62.9,,,,,,,,,125,130,135,135,135,,
1,Karen Cruz,F,D,FR-O,72,Raw,1988,,WA,66.4,,,,,,,,,112.5,127.5,140,140,140,,
2,Laura Ingemi,F,D,FR-O,72,Raw,1991,,RI,67.58,,,,,,,,,102.5,105,110,110,110,,
1,Stephanie Randels,F,SBD,F-M2,63,Single-ply,1964,,OR,61.4,-85,85,-95,85,62.5,-65,,62.5,102.5,115,-120,115,262.5,,
1,Lori Sharon,F,SBD,F-O,84+,Single-ply,1983,,WA,90.7,157.5,167.5,175,175,80,85,-92.5,85,162.5,172.5,182.5,182.5,442.5,,
1,Kaitlyn Dona,F,SBD,FR-Jr,52,Raw,1996,,WA,50.15,92.5,97.5,-102.5,97.5,40,42.5,-45,42.5,105,112.5,117.5,117.5,257.5,,
2,Marta Tsikitas,F,SBD,FR-Jr,52,Raw,1996,,PA,50.7,82.5,87.5,90,90,52.5,57.5,-62.5,57.5,82.5,100,107.5,107.5,255,,
3,Stella Han,F,SBD,FR-Jr,52,Raw,1998,,WA,49.2,75,82.5,87.5,87.5,50,52.5,57.5,57.5,82.5,87.5,95,95,240,,
1,Parsa Najmaie,F,SBD,FR-Jr,57,Raw,1997,,MN,56,-120,-120,120,120,65,70,-72.5,70,152.5,-157.5,157.5,157.5,347.5,,
2,Becca Dison,F,SBD,FR-Jr,57,Raw,1998,,NC,55.4,127.5,-135,-135,127.5,60,65,-70,65,127.5,140,-145,140,332.5,,
3,Carly Fleischer,F,SBD,FR-Jr,57,Raw,1996,,NJ,56.02,107.5,112.5,117.5,117.5,57.5,60,65,65,125,137.5,145,145,327.5,,
4,Molly Nguyen,F,SBD,FR-Jr,57,Raw,1996,,WA,55.7,105,112.5,117.5,117.5,50,52.5,55,55,130,135,142.5,142.5,315,,
5,Karen Le,F,SBD,FR-Jr,57,Raw,1997,,WA,55.1,102.5,107.5,110,110,52.5,55,60,60,127.5,-135,140,140,310,,
6,Samantha Sorrentino,F,SBD,FR-Jr,57,Raw,1995,,CT,55.8,95,102.5,115,115,55,62.5,-67.5,62.5,110,127.5,-137.5,127.5,305,,
7,Katie Ruland,F,SBD,FR-Jr,57,Raw,1995,,MD,55.6,92.5,97.5,102.5,102.5,67.5,-70,70,70,110,115,120,120,292.5,,
8,Alyssa Apsley,F,SBD,FR-Jr,57,Raw,1997,,MD,55.35,100,105,-112.5,105,55,57.5,60,60,105,112.5,117.5,117.5,282.5,,
9,Olivia Johnson,F,SBD,FR-Jr,57,Raw,1998,,ID,55.5,80,92.5,97.5,97.5,52.5,-57.5,-57.5,52.5,97.5,110,-117.5,110,260,,
10,Paige Woiner,F,SBD,FR-Jr,57,Raw,1995,,PA,54.7,60,65,-70,65,37.5,40,-45,40,102.5,105,112.5,112.5,217.5,,
11,Kaylee Clark,F,SBD,FR-Jr,57,Raw,1996,,MN,56.55,77.5,-85,-85,77.5,30,37.5,-40,37.5,85,87.5,92.5,92.5,207.5,,
1,Cameron Brown,F,SBD,FR-Jr,63,Raw,1999,,VA,61.2,127.5,135,140,140,62.5,65,70,70,147.5,155,162.5,162.5,372.5,,
2,Emily Tran,F,SBD,FR-Jr,63,Raw,1996,,NV,60.6,62.5,107.5,-112.5,107.5,-80,80,-85,80,130,140,-145,140,327.5,,
3,Ki'ana Clingingsmith,F,SBD,FR-Jr,63,Raw,1999,,HI,62.45,102.5,112.5,125,125,32.5,47.5,-50,47.5,112.5,122.5,145,145,317.5,,
4,Hannah Wills,F,SBD,FR-Jr,63,Raw,1998,,MD,62.65,110,117.5,122.5,122.5,50,55,-60,55,125,132.5,-145,132.5,310,,
5,Alyssa Neyer,F,SBD,FR-Jr,63,Raw,1996,,VA,61.2,95,100,102.5,102.5,62.5,65,-67.5,65,127.5,132.5,140,140,307.5,,
6,Lauren Ross,F,SBD,FR-Jr,63,Raw,1996,,MD,62,95,-102.5,105,105,45,47.5,-50,47.5,125,145,155,155,307.5,,
7,Katherine Shuey,F,SBD,FR-Jr,63,Raw,1995,,PA,59.1,92.5,97.5,-102.5,97.5,55,57.5,60,60,117.5,125,132.5,132.5,290,,
8,Kendal Angeloff,F,SBD,FR-Jr,63,Raw,1999,,VA,63,110,115,117.5,117.5,52.5,55,-57.5,55,105,110,-112.5,110,282.5,,
9,Sarah Taub,F,SBD,FR-Jr,63,Raw,1995,,NY,61.5,87.5,90,92.5,92.5,45,47.5,-52.5,47.5,125,130,137.5,137.5,277.5,,
10,Caitlin Golden,F,SBD,FR-Jr,63,Raw,1998,,NY,58.89,77.5,85,92.5,92.5,47.5,57.5,-62.5,57.5,82.5,92.5,-102.5,92.5,242.5,,
1,Megan Himes,F,SBD,FR-Jr,72,Raw,1998,,NY,69.2,147.5,152.5,157.5,157.5,82.5,-87.5,92.5,92.5,165,-175,-175,165,415,,
2,Jenifer Tabacco,F,SBD,FR-Jr,72,Raw,1998,,CT,69.8,150,157.5,162.5,162.5,80,82.5,-85,82.5,150,155,162.5,162.5,407.5,,
3,Rebecca Pranger,F,SBD,FR-Jr,72,Raw,1996,,CT,70.3,127.5,137.5,-142.5,137.5,65,70,72.5,72.5,135,145,-150,145,355,,
4,Sarah Braman,F,SBD,FR-Jr,72,Raw,1996,,MA,70.96,112.5,122.5,130,130,-57.5,60,65,65,142.5,157.5,-170,157.5,352.5,,
5,Elia Goffi,F,SBD,FR-Jr,72,Raw,1997,,MD,70.2,115,122.5,132.5,132.5,65,72.5,-77.5,72.5,130,140,-150,140,345,,
6,Lisa Kong,F,SBD,FR-Jr,72,Raw,1998,,WA,66.55,110,122.5,-135,122.5,50,60,-62.5,60,112.5,125,132.5,132.5,315,,
7,Mariah Hawley,F,SBD,FR-Jr,72,Raw,1998,,WI,65.68,102.1,108.9,115.7,115.7,43.1,-47.6,-47.6,43.1,108.9,117.9,124.7,124.7,283.5,,
8,Anna Gorbachuk,F,SBD,FR-Jr,72,Raw,1997,,WA,70.95,85,95,-102.5,95,50,55,60,60,97.5,107.5,117.5,117.5,272.5,,
9,Iryna Poltoratska,F,SBD,FR-Jr,72,Raw,1997,,WA,71.1,85,92.5,102.5,102.5,42.5,-52.5,-52.5,42.5,100,112.5,-125,112.5,257.5,,
10,Kara Stephens,F,SBD,FR-Jr,72,Raw,1996,,IN,65.55,-80,80,87.5,87.5,32.5,37.5,42.5,42.5,85,92.5,97.5,97.5,227.5,,
11,Rubi Tovar,F,SBD,FR-Jr,72,Raw,1998,,WA,68.5,75,80,85,85,50,-57.5,-57.5,50,75,80,87.5,87.5,222.5,,
DQ,Haley Gifford,F,SBD,FR-Jr,72,Raw,1998,,WI,70.76,-95.3,-102.1,-102.1,,47.6,52.2,-59,52.2,106.6,-117.9,-117.9,106.6,,,
DQ,Shanna Davi,F,SBD,FR-Jr,72,Raw,1996,,ID,71.8,62.5,-75,-82.5,62.5,-45,,,,-102.5,,,,,,
1,Emily Matis,F,SBD,FR-Jr,84,Raw,1996,,NJ,83.5,130,145,152.5,152.5,62.5,67.5,-75,67.5,160,167.5,185,185,405,,
2,Patience Miller,F,SBD,FR-Jr,84,Raw,1997,,CT,82.9,117.5,127.5,-132.5,127.5,85,90,95,95,152.5,162.5,170,170,392.5,,
3,Kirsten Stegeman,F,SBD,FR-Jr,84,Raw,1996,,MN,74.05,125,135,142.5,142.5,60,65,70,70,-145,155,165,165,377.5,,
4,Taylor Fetzer,F,SBD,FR-Jr,84,Raw,1996,,CT,74.83,-110,110,120,120,65,-70,-70,65,140,145,147.5,147.5,332.5,,
5,Taylor Blake,F,SBD,FR-Jr,84,Raw,1997,,NY,82.2,100,110,115,115,50,57.5,-60,57.5,135,147.5,155,155,327.5,,
6,Samantha Goode,F,SBD,FR-Jr,84,Raw,1995,,OH,77.95,112.5,117.5,-127.5,117.5,57.5,62.5,67.5,67.5,115,120,130,130,315,,
7,Elizabeth Sledzinski,F,SBD,FR-Jr,84,Raw,1995,,PA,75.9,102.5,105,-107.5,105,60,62.5,-67.5,62.5,120,130,-137.5,130,297.5,,
8,Jessica Severson,F,SBD,FR-Jr,84,Raw,1997,,WI,77.29,-95.3,102.1,106.6,106.6,-47.6,52.2,-56.7,52.2,102.1,108.9,-115.7,108.9,267.7,,
9,Erica Santa Maria,F,SBD,FR-Jr,84,Raw,1996,,CT,78.6,80,85,92.5,92.5,47.5,52.5,55,55,95,102.5,110,110,257.5,,
10,Hannah Bickley,F,SBD,FR-Jr,84,Raw,1996,,CT,75.3,87.5,92.5,97.5,97.5,42.5,47.5,-55,47.5,102.5,110,-122.5,110,255,,
11,Gretchen Bell,F,SBD,FR-Jr,84,Raw,1999,,OR,83.8,70,75,82.5,82.5,57.5,60,-65,60,107.5,112.5,-120,112.5,255,,
12,Jessica Wilkins,F,SBD,FR-Jr,84,Raw,1998,,WA,72.3,52.5,67.5,80,80,37.5,45,52.5,52.5,80,97.5,112.5,112.5,245,,
13,Lydia Glassley,F,SBD,FR-Jr,84,Raw,1997,,WA,77,67.5,72.5,75,75,-37.5,37.5,45,45,77.5,85,87.5,87.5,207.5,,
1,Andrea Muraoka,F,SBD,FR-Jr,84+,Raw,1997,The Iron Maidens,WA,102.1,162.5,167.5,-170,167.5,97.5,100,-105,100,170,177.5,-182.5,177.5,445,,
2,Holly Yoon,F,SBD,FR-Jr,84+,Raw,1996,,WA,111,160,170,180,180,65,70,-75,70,-125,-130,135,135,385,,
3,Khanh Hoang,F,SBD,FR-Jr,84+,Raw,1998,,MD,94.95,137.5,145,150,150,50,55,57.5,57.5,145,155,160,160,367.5,,
4,Alexis Keith,F,SBD,FR-Jr,84+,Raw,1997,,VA,97.55,-105,-105,105,105,67.5,72.5,-75,72.5,127.5,137.5,-145,137.5,315,,
5,Hannah Bell,F,SBD,FR-Jr,84+,Raw,1995,,WA,84.3,87.5,97.5,-105,97.5,52.5,-57.5,-57.5,52.5,117.5,130,137.5,137.5,287.5,,
6,Celeste Kamasa,F,SBD,FR-Jr,84+,Raw,1997,,OH,130.45,80,87.5,92.5,92.5,42.5,-47.5,52.5,52.5,87.5,102.5,107.5,107.5,252.5,,
7,Taylor Nattress,F,SBD,FR-Jr,84+,Raw,1997,,VA,118,80,95,100,100,50,-55,-55,50,80,92.5,-102.5,92.5,242.5,,
DQ,Alyssa Williams,F,SBD,FR-Jr,84+,Raw,1998,,OR,84.9,80,92.5,105,105,-62.5,-62.5,-65,,137.5,-140,-142.5,137.5,,,
1,Lynn-Marie Aronica,F,SBD,FR-M1,47,Raw,1972,,NY,46,70,75,-80,75,-47.5,47.5,-52.5,47.5,95,102.5,-112.5,102.5,225,,
1,Kelley Sherwin,F,SBD,FR-M1,52,Raw,1972,,WI,49.35,93,-104.3,104.3,104.3,59,63.5,-65.8,63.5,127,136.1,140.6,140.6,308.4,,
2,Winnie Abramson,F,SBD,FR-M1,52,Raw,1970,,NY,50.6,102.5,107.5,112.5,112.5,45,47.5,50,50,125,130,132.5,132.5,295,,
3,Sheila Nielsen,F,SBD,FR-M1,52,Raw,1977,,OR,51.2,75,80,90,90,42.5,47.5,50,50,125,127.5,-130,127.5,267.5,,
1,Michelle Modrijan,F,SBD,FR-M1,57,Raw,1971,,MN,56.85,-92.5,97.5,102.5,102.5,55,57.5,60,60,110,115,117.5,117.5,280,,
2,Monica Saunders,F,SBD,FR-M1,57,Raw,1975,,MA,55.8,85,90,92.5,92.5,60,62.5,-65,62.5,110,117.5,120,120,275,,
3,Kim Landry-Ayres,F,SBD,FR-M1,57,Raw,1971,,WI,56.52,77.1,86.2,95.3,95.3,61.2,65.8,-68,65.8,90.7,102.1,113.4,113.4,274.5,,
4,Aurora Rodriguez,F,SBD,FR-M1,57,Raw,1979,,ID,56,70,75,77.5,77.5,30,32.5,-40,32.5,105,115,122.5,122.5,232.5,,
5,Roberta Garvin,F,SBD,FR-M1,57,Raw,1975,,ID,56,-47.5,55,-70,55,65,70,-75,70,75,80,85,85,210,,
6,Wendy Mason,F,SBD,FR-M1,57,Raw,1970,,WA,54.5,-45,-45,45,45,42.5,45,-47.5,45,60,82.5,-100,82.5,172.5,,
1,Robin Shell,F,SBD,FR-M1,63,Raw,1971,,OH,62.9,90,97.5,105,105,62.5,67.5,-72.5,67.5,140,145,150,150,322.5,,
2,Stacia Fisher,F,SBD,FR-M1,63,Raw,1979,,WA,59.4,-92.5,105,110,110,-45,50,55,55,137.5,155,-160,155,320,,
3,Shari Stilley,F,SBD,FR-M1,63,Raw,1978,,VA,63,110,117.5,120,120,52.5,55,-60,55,130,140,-142.5,140,315,,
4,Amy Suzan,F,SBD,FR-M1,63,Raw,1976,,WI,61.85,82.5,92.5,97.5,97.5,65,-70,-70,65,130,137.5,-142.5,137.5,300,,
5,Andrea Robertson,F,SBD,FR-M1,63,Raw,1974,,WA,59.35,95,102.5,-107.5,102.5,57.5,60,-65,60,110,117.5,125,125,287.5,,
6,Mandy Berreth,F,SBD,FR-M1,63,Raw,1975,,WA,60.8,90,95,-100,95,42.5,47.5,50,50,130,135,137.5,137.5,282.5,,
7,Treha Myth Downey,F,SBD,FR-M1,63,Raw,1973,,NY,62.6,75,85,92.5,92.5,52.5,57.5,60,60,112.5,120,127.5,127.5,280,,
8,Rebecca Thompson,F,SBD,FR-M1,63,Raw,1974,,WI,61.05,93,-102.1,102.1,102.1,56.7,61.2,63.5,63.5,102.1,108.9,113.4,113.4,279,,
9,Elise Miller,F,SBD,FR-M1,63,Raw,1969,,PA,60.2,80,85,-87.5,85,-50,50,-52.5,50,102.5,112.5,115,115,250,,
10,Sandra Frigo,F,SBD,FR-M1,63,Raw,1972,,WI,58.24,77.1,86.2,-95.3,86.2,43.1,45.4,-49.9,45.4,83.9,90.7,108.9,108.9,240.5,,
11,Ardet Biotti,F,SBD,FR-M1,63,Raw,1973,The Iron Maidens,WA,61.5,62.5,70,80,80,37.5,40,-45,40,82.5,95,-102.5,95,215,,
12,Michelle Callahan,F,SBD,FR-M1,63,Raw,1976,,VA,61.1,60,65,70,70,40,-47.5,-47.5,40,90,-100,-102.5,90,200,,
1,Kristin Ripley,F,SBD,FR-M1,72,Raw,1979,,IN,71.2,115,125,132.5,132.5,67.5,75,82.5,82.5,127.5,142.5,152.5,152.5,367.5,,
2,Leah Hardesty,F,SBD,FR-M1,72,Raw,1979,,WA,66.9,107.5,115,120,120,55,60,62.5,62.5,147.5,157.5,165,165,347.5,,
3,Meggan Davis,F,SBD,FR-M1,72,Raw,1977,,WA,63.75,-95,-105,105,105,65,70,-77.5,70,150,157.5,165,165,340,,
4,Jodi Hastings,F,SBD,FR-M1,72,Raw,1978,,MN,71.3,110,125,-127.5,125,60,-70,-70,60,137.5,150,152.5,152.5,337.5,,
5,Amanda Koldjeski,F,SBD,FR-M1,72,Raw,1979,,VA,69.85,90,95,-100,95,85,90,92.5,92.5,130,137.5,142.5,142.5,330,,
6,Jamie Neussendorfer,F,SBD,FR-M1,72,Raw,1976,,ID,71.3,107.5,115,-120,115,72.5,-77.5,-80,72.5,135,142.5,-145,142.5,330,,
7,Marlys Underwood,F,SBD,FR-M1,72,Raw,1972,,OR,67.9,102.5,107.5,110,110,70,72.5,-75,72.5,125,130,137.5,137.5,320,,
8,Jesse Moen,F,SBD,FR-M1,72,Raw,1977,Dungeon Strength & Conditioning,MN,70.4,102.5,-112.5,-112.5,102.5,52.5,62.5,-65,62.5,125,142.5,145,145,310,,
9,Julie Palmer,F,SBD,FR-M1,72,Raw,1971,,NY,71.4,102.5,112.5,-122.5,112.5,52.5,-57.5,-57.5,52.5,132.5,145,-150,145,310,,
10,Ellesia Barradale,F,SBD,FR-M1,72,Raw,1976,Spanaway Fitness,WA,67.6,115,120,-125,120,50,-62.5,-62.5,50,120,122.5,127.5,127.5,297.5,,
11,Amy Gagnon,F,SBD,FR-M1,72,Raw,1979,,WA,70.9,107.5,-115,115,115,52.5,57.5,60,60,120,-130,-130,120,295,,
12,Rebecca Larsen,F,SBD,FR-M1,72,Raw,1976,,ID,71.8,97.5,-102.5,-105,97.5,52.5,55,-57.5,55,110,120,127.5,127.5,280,,
13,Allison Bell,F,SBD,FR-M1,72,Raw,1972,,OR,70.2,-77.5,80,85,85,47.5,50,52.5,52.5,-125,-130,130,130,267.5,,
14,Jodi Gelineau,F,SBD,FR-M1,72,Raw,1970,,MN,66.25,95,102.5,-112.5,102.5,45,-52.5,-52.5,45,102.5,115,-125,115,262.5,,
15,Kimberly Asperheim,F,SBD,FR-M1,72,Raw,1970,,MN,69.7,75,82.5,-87.5,82.5,47.5,52.5,-60,52.5,87.5,92.5,-100,92.5,227.5,,
16,Yasmin Ismail,F,SBD,FR-M1,72,Raw,1979,,OR,68.8,65,70,72.5,72.5,32.5,35,40,40,72.5,80,85,85,197.5,,
17,Stacey Terry,F,SBD,FR-M1,72,Raw,1973,,WA,71.6,72.5,75,-82.5,75,27.5,30,32.5,32.5,80,82.5,87.5,87.5,195,,
DQ,Christy Zeigler,F,SBD,FR-M1,72,Raw,1976,,PA,71.8,-137.5,-137.5,-137.5,,52.5,57.5,-67.5,57.5,130,137.5,152.5,152.5,,,
1,Rachael Courington,F,SBD,FR-M1,84,Raw,1976,,MA,82.38,147.5,160,167.5,167.5,65,70,-72.5,70,155,165,175,175,412.5,,
2,Iajaira Fernandez,F,SBD,FR-M1,84,Raw,1978,,VA,72.85,115,120,125,125,65,-70,70,70,137.5,140,145,145,340,,
3,Stacy Wikle,F,SBD,FR-M1,84,Raw,1973,,WA,79.7,100,110,115,115,42.5,50,-55,50,120,125,132.5,132.5,297.5,,
4,Jen Jacobs,F,SBD,FR-M1,84,Raw,1977,,DC,79.15,82.5,90,97.5,97.5,50,52.5,-55,52.5,122.5,132.5,140,140,290,,
5,Jenny Ladd,F,SBD,FR-M1,84,Raw,1975,,OR,81.1,85,92.5,97.5,97.5,55,57.5,-62.5,57.5,115,122.5,130,130,285,,
6,Jenifer Bloodsworth,F,SBD,FR-M1,84,Raw,1977,,CT,74.45,97.5,-102.5,102.5,102.5,52.5,55,60,60,112.5,117.5,120,120,282.5,,
7,Alicia Barger,F,SBD,FR-M1,84,Raw,1977,,VA,81.25,85,90,97.5,97.5,62.5,67.5,-70,67.5,107.5,112.5,115,115,280,,
8,Jennifer Worley,F,SBD,FR-M1,84,Raw,1974,,MN,82.3,75,82.5,92.5,92.5,55,62.5,67.5,67.5,92.5,105,112.5,112.5,272.5,,
2,Rachel Consoli,F,SBD,FR-M1,84+,Raw,1976,,RI,104.7,125,137.5,147.5,147.5,65,70,75,75,125,137.5,147.5,147.5,370,,
3,Kerry Rudolph,F,SBD,FR-M1,84+,Raw,1977,,VT,99.8,110,122.5,137.5,137.5,55,65,-75,65,117.5,145,160,160,362.5,,
4,Kim Sellner,F,SBD,FR-M1,84+,Raw,1977,,MN,108.68,124.7,138.4,-142.9,138.4,65.8,68,-70.3,68,-138.4,147.4,154.2,154.2,360.6,,
5,Darby Monroe,F,SBD,FR-M1,84+,Raw,1974,,WA,135.5,-125,-127.5,127.5,127.5,55,60,65,65,152.5,155,-160,155,347.5,,
6,Elizabeth Carpenter,F,SBD,FR-M1,84+,Raw,1974,,MN,156.6,97.5,105,-110,105,82.5,90,-92.5,90,132.5,142.5,147.5,147.5,342.5,,
7,Christine Lavin-Matthews,F,SBD,FR-M1,84+,Raw,1976,,WI,94.17,111.1,120.2,-129.3,120.2,70.3,74.8,-81.7,74.8,131.5,145.2,-156.5,145.2,340.2,,
8,Venus Lanham,F,SBD,FR-M1,84+,Raw,1970,,MD,103.65,-107.5,107.5,120,120,65,67.5,-72.5,67.5,130,140,147.5,147.5,335,,
9,Marion Brown,F,SBD,FR-M1,84+,Raw,1978,,NY,102.2,80,87.5,-97.5,87.5,52.5,57.5,60,60,120,132.5,142.5,142.5,290,,
10,Brandy Cortnik,F,SBD,FR-M1,84+,Raw,1978,,OR,117.7,82.5,92.5,-102.5,92.5,52.5,60,-67.5,60,112.5,120,125,125,277.5,,
11,Jennifer Deshaies,F,SBD,FR-M1,84+,Raw,1973,,WA,109.1,-85,85,-100,85,55,57.5,60,60,112.5,117.5,122.5,122.5,267.5,,
12,Kristi Gross,F,SBD,FR-M1,84+,Raw,1978,AFLC Powerlifting,MN,118.6,-82.5,82.5,-85,82.5,42.5,50,57.5,57.5,92.5,105,110,110,250,,
13,Paula Anderson,F,SBD,FR-M1,84+,Raw,1972,,WI,98.79,-77.1,-86.2,86.2,86.2,45.4,47.6,49.9,49.9,102.1,111.1,113.4,113.4,249.5,,
14,Larissa Brown,F,SBD,FR-M1,84+,Raw,1971,,VA,92.1,57.5,-62.5,-65,57.5,-32.5,-35,35,35,65,72.5,80,80,172.5,,
15,Macie McCurdy,F,BD,FR-M1,84+,Raw,1974,,OR,93.4,,,,,37.5,40,42.5,42.5,62.5,65,70,70,112.5,,
1,Lynn Pietig,F,SBD,FR-M2,57,Raw,1966,,MN,56.25,97.5,102.5,-105,102.5,45,-50,-50,45,122.5,130,-140,130,277.5,,
2,Jen Bates,F,SBD,FR-M2,57,Raw,1964,,WA,54.7,-82.5,-87.5,90,90,50,-52.5,52.5,52.5,117.5,125,130,130,272.5,,
3,Ruth Kirby,F,SBD,FR-M2,57,Raw,1960,,WA,52.65,75,80,85,85,-55,-55,55,55,110,115,122.5,122.5,262.5,,
1,Lara Friedman-Shedlov,F,SBD,FR-M2,63,Raw,1969,,MN,62.5,110,115,120,120,70,72.5,-75,72.5,155,165,172.5,172.5,365,,
2,Lynne Richards,F,SBD,FR-M2,63,Raw,1964,The Iron Maidens,WA,61.3,-115,115,125,125,55,60,-62.5,60,137.5,-142.5,-142.5,137.5,322.5,,
3,Kelly Matthews,F,SBD,FR-M2,63,Raw,1969,,VA,62.7,95,100,102.5,102.5,67.5,70,-75,70,107.5,115,120,120,292.5,,
4,Vicki Keanu,F,SBD,FR-M2,63,Raw,1960,,WA,61,85,90,95,95,-50,52.5,55,55,110,115,120,120,270,,
5,Sonya Dintaman,F,SBD,FR-M2,63,Raw,1968,,IN,61.8,87.5,92.5,95,95,50,52.5,-57.5,52.5,95,97.5,100,100,247.5,,
6,Susan Harbison,F,SBD,FR-M2,63,Raw,1966,,MD,60.6,55,57.5,60,60,50,55,-57.5,55,105,112.5,120,120,235,,
1,Sabra Edwards,F,SBD,FR-M2,72,Raw,1965,,NY,66.8,95,-100,100,100,80,-85,85,85,125,132.5,140,140,325,,
2,Lisa Schornagel,F,SBD,FR-M2,72,Raw,1968,,CT,72,97.5,-105,105,105,57.5,-62.5,62.5,62.5,120,137.5,-140,137.5,305,,
3,Stacy Peters,F,SBD,FR-M2,72,Raw,1967,,NY,63.3,85,92.5,100,100,37.5,-47.5,47.5,47.5,105,117.5,120,120,267.5,,
4,Valinda Horstman,F,SBD,FR-M2,72,Raw,1965,,WA,71.8,87.5,92.5,95,95,57.5,-60,-60,57.5,100,105,112.5,112.5,265,,
5,Carla Suchy,F,SBD,FR-M2,72,Raw,1965,Dungeon Strength & Conditioning,MN,69.2,70,72.5,75,75,42.5,-45,-45,42.5,95,97.5,102.5,102.5,220,,
1,Susan Wilson,F,SBD,FR-M2,84,Raw,1966,,CT,83.2,97.5,105,110,110,65,70,-72.5,70,117.5,125,132.5,132.5,312.5,,
2,Laura Hutchins,F,SBD,FR-M2,84,Raw,1966,Spanaway Fitness,WA,75.9,80,85,90,90,50,55,60,60,130,140,150,150,300,,
3,Connie Geiger,F,SBD,FR-M2,84,Raw,1961,Dungeon Strength & Conditioning,MN,79.7,77.5,95,-97.5,95,50,55,57.5,57.5,102.5,115,-122.5,115,267.5,,
4,Robin VanOss,F,SBD,FR-M2,84,Raw,1963,,MN,83.3,70,75,80,80,47.5,50,-52.5,50,90,97.5,102.5,102.5,232.5,,
5,Marie Wallace,F,SBD,FR-M2,84,Raw,1961,,ID,82.1,70,80,85,85,40,-45,-45,40,85,90,95,95,220,,
DQ,Sue Dillard,F,SBD,FR-M2,84,Raw,1962,,VA,82.9,67.5,70,72.5,72.5,-65,-65,65,65,-120,-120,-120,,,,
1,Rhonda Boer,F,SBD,FR-M2,84+,Raw,1965,,OH,137.3,110,117.5,122.5,122.5,47.5,52.5,-55,52.5,147.5,155,160,160,335,,
2,Cheryl Weinstein,F,SBD,FR-M2,84+,Raw,1966,,WA,91.6,82.5,87.5,92.5,92.5,-57.5,60,62.5,62.5,117.5,122.5,130,130,285,,
3,Annette Ingram,F,SBD,FR-M2,84+,Raw,1966,,WA,135.9,65,72.5,80,80,-50,50,55,55,105,115,130,130,265,,
4,Robin Gunn,F,SBD,FR-M2,84+,Raw,1966,,MA,90.24,60,72.5,75,75,32.5,40,-42.5,40,95,102.5,105,105,220,,
5,Robyn Koger Kidd,F,SBD,FR-M2,84+,Raw,1961,Dungeon Strength & Conditioning,MN,90.85,62.5,67.5,-72.5,67.5,42.5,45,-47.5,45,92.5,100,107.5,107.5,220,,
1,Wendell Hoyman,F,SBD,FR-M3,63,Raw,1958,,OR,62.2,52.5,-60,-70,52.5,47.5,-55,-55,47.5,92.5,95,,95,195,,
1,Joanne Parrella,F,SBD,FR-M3,72,Raw,1955,,NY,64,57.5,62.5,70,70,32.5,-37.5,-37.5,32.5,92.5,102.5,115,115,217.5,,
1,Roxanne Lord,F,SBD,FR-M3,84,Raw,1956,,VA,82.85,110,117.5,120,120,52.5,57.5,60,60,110,120,130,130,310,,
2,Lisa White,F,SBD,FR-M3,84,Raw,1959,,MD,82.55,40,-50,50,50,25,30,-35,30,85,95,105,105,185,,
3,Elaine Ostrander,F,SBD,FR-M3,84,Raw,1958,,MD,81.4,25,35,42.5,42.5,30,-42.5,-42.5,30,85,95,105,105,177.5,,
4,Jill Berg,F,SBD,FR-M3,84,Raw,1956,,MN,76.75,45,-47.5,50,50,40,-42.5,-42.5,40,67.5,72.5,77.5,77.5,167.5,,
DQ,Elaine Wallace,F,SBD,FR-M3,84,Raw,1954,,NY,76.5,-100,-100,-100,,50,52.5,-55,52.5,112.5,115,117.5,117.5,,,
1,Vicki Morck,F,SBD,FR-M3,84+,Raw,1958,,WA,91.1,-95,95,-100,95,50,-52.5,52.5,52.5,127.5,135,-142.5,135,282.5,,
1,Sharon Hernstadt,F,SBD,FR-M5,84,Raw,1939,,NY,72.3,-32.5,32.5,-35,32.5,25,27.5,-32.5,27.5,60,65,70,70,130,,
1,Katherina Gindinova,F,SBD,FR-O,52,Raw,1994,,NY,50.5,100,105,-110,105,70,72.5,-75,72.5,127.5,132.5,-137.5,132.5,310,,
2,Kelley Sherwin,F,SBD,FR-O,52,Raw,1972,,WI,49.35,93,-104.3,104.3,104.3,59,63.5,-65.8,63.5,127,136.1,140.6,140.6,308.4,,
3,Winnie Abramson,F,SBD,FR-O,52,Raw,1970,,NY,50.6,102.5,107.5,112.5,112.5,45,47.5,50,50,125,130,132.5,132.5,295,,
4,Gloria Neeld,F,SBD,FR-O,52,Raw,1982,,VA,51.65,82.5,87.5,90,90,67.5,70,72.5,72.5,102.5,107.5,115,115,277.5,,
5,Stella Han,F,SBD,FR-O,52,Raw,1998,,WA,49.2,75,82.5,87.5,87.5,50,52.5,57.5,57.5,82.5,87.5,95,95,240,,
6,Kari Lehman,F,SBD,FR-O,52,Raw,1996,,PA,51.5,85,-87.5,90,90,45,52.5,-57.5,52.5,90,97.5,-107.5,97.5,240,,
1,Pa-Woua Vang,F,SBD,FR-O,57,Raw,1992,,MN,55.3,127.5,132.5,137.5,137.5,70,-75,75,75,150,155,160,160,372.5,,
2,Siobahn Kinney,F,SBD,FR-O,57,Raw,1988,,CT,55.6,117.5,127.5,132.5,132.5,65,70,-75,70,142.5,150,155,155,357.5,,
3,Hannah Perlman,F,SBD,FR-O,57,Raw,1994,,VA,56.45,107.5,112.5,-117.5,112.5,72.5,77.5,-82.5,77.5,137.5,145,-150,145,335,,
4,Brittany Hirt,F,SBD,FR-O,57,Raw,1989,,NC,56.55,120,127.5,130,130,57.5,62.5,-65,62.5,130,142.5,-145,142.5,335,,
5,Becca Dison,F,SBD,FR-O,57,Raw,1998,,NC,55.4,127.5,-135,-135,127.5,60,65,-70,65,127.5,140,-145,140,332.5,,
6,Danielle Moeckel,F,SBD,FR-O,57,Raw,1988,,ID,55.9,102.5,112.5,117.5,117.5,50,57.5,62.5,62.5,137.5,147.5,-152.5,147.5,327.5,,
7,Carly Fleischer,F,SBD,FR-O,57,Raw,1996,,NJ,56.02,107.5,112.5,117.5,117.5,57.5,60,65,65,125,137.5,145,145,327.5,,
8,Lauren Gohh,F,SBD,FR-O,57,Raw,1993,,PA,54.8,122.5,127.5,130,130,50,55,57.5,57.5,117.5,125,132.5,132.5,320,,
9,Emily Wang,F,SBD,FR-O,57,Raw,1992,,NY,55.4,115,120,-125,120,55,57.5,-60,57.5,120,125,130,130,307.5,,
10,Nora Rege,F,SBD,FR-O,57,Raw,1990,,OH,56.2,120,-125,125,125,52.5,-57.5,-57.5,52.5,125,127.5,-132.5,127.5,305,,
11,Kerry DeBuono,F,SBD,FR-O,57,Raw,1984,,MN,56.4,97.5,102.5,105,105,50,52.5,-55,52.5,125,130,135,135,292.5,,
12,Mary Ginnetti,F,SBD,FR-O,57,Raw,1988,,ID,55.8,97.5,102.5,107.5,107.5,50,55,-57.5,55,102.5,115,125,125,287.5,,
13,Monica Saunders,F,SBD,FR-O,57,Raw,1975,,MA,55.8,85,90,92.5,92.5,60,62.5,-65,62.5,110,117.5,120,120,275,,
14,Kim Landry-Ayres,F,SBD,FR-O,57,Raw,1971,,WI,56.52,77.1,86.2,95.3,95.3,61.2,65.8,-68,65.8,90.7,102.1,113.4,113.4,274.5,,
15,Stephanie Putnam,F,SBD,FR-O,57,Raw,1993,,OH,55.35,82.5,87.5,90,90,50,52.5,-55,52.5,115,122.5,130,130,272.5,,
16,Stephanie Renner,F,SBD,FR-O,57,Raw,1994,,NY,55.9,-85,87.5,90,90,52.5,-55,-55,52.5,110,115,122.5,122.5,265,,
17,Jacklyn Dott,F,SBD,FR-O,57,Raw,1987,,NY,52.4,92.5,97.5,102.5,102.5,42.5,45,47.5,47.5,97.5,105,110,110,260,,
18,Caitlin Ludford,F,SBD,FR-O,57,Raw,2002,,MA,55.7,87.5,97.5,-102.5,97.5,45,47.5,52.5,52.5,90,97.5,102.5,102.5,252.5,,
19,Catherine Sandler,F,SBD,FR-O,57,Raw,1987,,MA,56.6,70,75,-77.5,75,45,47.5,-50,47.5,117.5,122.5,130,130,252.5,,
20,Jeanette Orr,F,SBD,FR-O,57,Raw,1980,,WA,55,77.5,85,-92.5,85,47.5,52.5,-57.5,52.5,85,95,100,100,237.5,,
21,Aurora Rodriguez,F,SBD,FR-O,57,Raw,1979,,ID,56,70,75,77.5,77.5,30,32.5,-40,32.5,105,115,122.5,122.5,232.5,,
22,Karen O'Brien,F,SBD,FR-O,57,Raw,1980,,CT,56.6,77.5,82.5,87.5,87.5,47.5,52.5,-55,52.5,80,87.5,92.5,92.5,232.5,,
23,Annely Schumacher,F,SBD,FR-O,57,Raw,1987,,MD,56.8,70,80,85,85,40,45,-50,45,90,-102.5,102.5,102.5,232.5,,
DQ,Jessica Martin,F,SBD,FR-O,57,Raw,1981,,WA,54.8,-95,-105,105,105,-55,-60,-60,,140,-150,-150,140,,,
1,Kelly Blake,F,SBD,FR-O,63,Raw,1993,,MN,63,150,-155,155,155,85,90,-92.5,90,162.5,170,-175,170,415,,
2,Emily Kimball,F,SBD,FR-O,63,Raw,1992,,CT,61.7,130,140,142.5,142.5,75,80,85,85,147.5,157.5,165,165,392.5,,
3,Shandel Yanney,F,SBD,FR-O,63,Raw,1992,,WA,58.55,127.5,137.5,140,140,62.5,67.5,70,70,150,160,165,165,375,,
4,Cameron Brown,F,SBD,FR-O,63,Raw,1999,,VA,61.2,127.5,135,140,140,62.5,65,70,70,147.5,155,162.5,162.5,372.5,,
5,Monica Ruiz,F,SBD,FR-O,63,Raw,1993,,CT,61.4,120,130,135,135,70,75,80,80,137.5,142.5,147.5,147.5,362.5,,
6,Christina Consigli,F,SBD,FR-O,63,Raw,1991,,NY,62.5,127.5,135,142.5,142.5,70,-75,-75,70,142.5,147.5,-155,147.5,360,,
7,Stefanie Odenbrett,F,SBD,FR-O,63,Raw,1987,,WA,62.5,122.5,127.5,130,130,82.5,85,87.5,87.5,127.5,132.5,137.5,137.5,355,,
8,Elise Lee,F,SBD,FR-O,63,Raw,1991,,MN,61.9,122.5,130,135,135,75,80,85,85,120,127.5,130,130,350,,
9,Amber Stephenson,F,SBD,FR-O,63,Raw,1991,,CT,63,112.5,120,127.5,127.5,67.5,72.5,-75,72.5,137.5,145,150,150,350,,
10,Samantha LaCoe,F,SBD,FR-O,63,Raw,1991,,PA,62.4,122.5,127.5,-137.5,127.5,75,80,82.5,82.5,120,132.5,-140,132.5,342.5,,
11,Jenna Osterman,F,SBD,FR-O,63,Raw,1992,,WA,59.35,107.5,112.5,-117.5,112.5,67.5,72.5,75,75,135,145,-152.5,145,332.5,,
12,Cindy Godoy,F,SBD,FR-O,63,Raw,1995,,VA,61.2,115,120,125,125,60,62.5,65,65,125,132.5,140,140,330,,
13,Emily Tran,F,SBD,FR-O,63,Raw,1996,,NV,60.6,62.5,107.5,-112.5,107.5,-80,80,-85,80,130,140,-145,140,327.5,,
14,Christine Tran,F,SBD,FR-O,63,Raw,1992,,VA,62.25,-112.5,120,122.5,122.5,45,-52.5,-52.5,45,142.5,155,-162.5,155,322.5,,
15,Robin Shell,F,SBD,FR-O,63,Raw,1971,,OH,62.9,90,97.5,105,105,62.5,67.5,-72.5,67.5,140,145,150,150,322.5,,
16,Rocio Islas,F,SBD,FR-O,63,Raw,1992,,WA,59,-107.5,115,122.5,122.5,57.5,62.5,65,65,115,125,132.5,132.5,320,,
17,Stacia Fisher,F,SBD,FR-O,63,Raw,1979,,WA,59.4,-92.5,105,110,110,-45,50,55,55,137.5,155,-160,155,320,,
18,Shari Stilley,F,SBD,FR-O,63,Raw,1978,,VA,63,110,117.5,120,120,52.5,55,-60,55,130,140,-142.5,140,315,,
19,Hannah Wills,F,SBD,FR-O,63,Raw,1998,,MD,62.65,110,117.5,122.5,122.5,50,55,-60,55,125,132.5,-145,132.5,310,,
20,Alyssa Neyer,F,SBD,FR-O,63,Raw,1996,,VA,61.2,95,100,102.5,102.5,62.5,65,-67.5,65,127.5,132.5,140,140,307.5,,
21,Lauren Ross,F,SBD,FR-O,63,Raw,1996,,MD,62,95,-102.5,105,105,45,47.5,-50,47.5,125,145,155,155,307.5,,
22,Madelaine Williams,F,SBD,FR-O,63,Raw,1990,,OR,60.9,97.5,100,105,105,50,55,-57.5,55,130,137.5,142.5,142.5,302.5,,
23,Francesca Campos,F,SBD,FR-O,63,Raw,1989,,WA,61.2,105,107.5,112.5,112.5,47.5,50,-52.5,50,125,132.5,137.5,137.5,300,,
24,Heather Collins,F,SBD,FR-O,63,Raw,1982,,MD,59.7,95,100,110,110,57.5,60,62.5,62.5,105,112.5,120,120,292.5,,
25,Nicole Tompkins-Flagg,F,SBD,FR-O,63,Raw,1987,,MD,60.9,90,100,107.5,107.5,57.5,62.5,65,65,105,112.5,120,120,292.5,,
26,Kelly Matthews,F,SBD,FR-O,63,Raw,1969,,VA,62.7,95,100,102.5,102.5,67.5,70,-75,70,107.5,115,120,120,292.5,,
27,Alexis Feinberg,F,SBD,FR-O,63,Raw,1988,,MA,58.3,92.5,97.5,105,105,52.5,-57.5,-57.5,52.5,117.5,127.5,132.5,132.5,290,,
28,Katharina McPherran,F,SBD,FR-O,63,Raw,1986,,WA,59.7,92.5,97.5,-102.5,97.5,55,-57.5,-57.5,55,120,130,137.5,137.5,290,,
29,Jennifer O'Brien,F,SBD,FR-O,63,Raw,1982,,CT,60.9,90,97.5,102.5,102.5,57.5,62.5,65,65,102.5,112.5,122.5,122.5,290,,
30,Melanie Eyre,F,SBD,FR-O,63,Raw,1993,,CT,58,102.5,107.5,-115,107.5,50,55,-57.5,55,115,125,-137.5,125,287.5,,
31,Carley Burford,F,SBD,FR-O,63,Raw,1994,,MA,61.42,102.5,105,107.5,107.5,-57.5,57.5,-62.5,57.5,110,115,122.5,122.5,287.5,,
32,Jessica Raze,F,SBD,FR-O,63,Raw,1990,,VA,62.7,107.5,-112.5,115,115,52.5,57.5,-62.5,57.5,115,-125,-125,115,287.5,,
33,Kendal Angeloff,F,SBD,FR-O,63,Raw,1999,,VA,63,110,115,117.5,117.5,52.5,55,-57.5,55,105,110,-112.5,110,282.5,,
34,Samantha Zimmerman,F,SBD,FR-O,63,Raw,1993,,WI,59.06,-93,-102.1,102.1,102.1,54.4,-61.2,-61.2,54.4,-124.7,-124.7,124.7,124.7,281.2,,
35,Treha Myth Downey,F,SBD,FR-O,63,Raw,1973,,NY,62.6,75,85,92.5,92.5,52.5,57.5,60,60,112.5,120,127.5,127.5,280,,
36,Cassandra Whitlock,F,SBD,FR-O,63,Raw,1984,,PA,62,87.5,97.5,-102.5,97.5,42.5,47.5,50,50,120,125,-130,125,272.5,,
37,Samantha DiPace,F,SBD,FR-O,63,Raw,1992,,CT,61.8,82.5,90,95,95,57.5,62.5,-65,62.5,95,102.5,110,110,267.5,,
38,Sophie Scott,F,SBD,FR-O,63,Raw,1991,,WA,61,75,82.5,92.5,92.5,50,55,-60,55,107.5,117.5,-125,117.5,265,,
39,Whitney Rambel,F,SBD,FR-O,63,Raw,1986,Spanaway Fitness,WA,60.15,82.5,90,92.5,92.5,-45,47.5,-52.5,47.5,105,115,122.5,122.5,262.5,,
40,Lisa McCann,F,SBD,FR-O,63,Raw,1981,,WA,61.2,82.5,85,90,90,47.5,50,52.5,52.5,100,105,110,110,252.5,,
41,Caitlin Golden,F,SBD,FR-O,63,Raw,1998,,NY,58.89,77.5,85,92.5,92.5,47.5,57.5,-62.5,57.5,82.5,92.5,-102.5,92.5,242.5,,
42,Megan Landstine,F,SBD,FR-O,63,Raw,1988,,WA,62.3,77.5,-82.5,85,85,42.5,-47.5,-47.5,42.5,102.5,110,-115,110,237.5,,
43,Keana Mueller,F,SBD,FR-O,63,Raw,1991,,WA,61.55,80,-82.5,85,85,42.5,45,47.5,47.5,85,90,97.5,97.5,230,,
44,Erin West,F,SBD,FR-O,63,Raw,1987,,WA,57.95,67.5,72.5,77.5,77.5,45,50,-55,50,85,90,95,95,222.5,,
45,Elissa Courtright,F,SBD,FR-O,63,Raw,1985,,OH,58.55,57.5,62.5,67.5,67.5,47.5,-50,,47.5,85,90,-92.5,90,205,,
46,Italiana Hughes,F,SBD,FR-O,63,Raw,1990,,WA,59.25,35,47.5,60,60,30,32.5,35,35,57.5,70,82.5,82.5,177.5,,
DQ,Morgan Stocker,F,SBD,FR-O,63,Raw,1999,,OH,61.4,105,115,120,120,-65,-70,-70,,125,130,137.5,137.5,,,
1,Stephanie Scoville,F,SBD,FR-O,72,Raw,1991,,CT,65.02,155,165,170,170,82.5,87.5,90,90,170,182.5,187.5,187.5,447.5,,
2,Sinead Gill,F,SBD,FR-O,72,Raw,1991,,MA,66.9,142.5,152.5,160,160,80,85,-90,85,165,175,185,185,430,,
3,Rachel Karam,F,SBD,FR-O,72,Raw,1988,,NY,70.3,160,-170,-170,160,80,-85,-85,80,182.5,-202.5,-202.5,182.5,422.5,,
4,Kristen Boulay,F,SBD,FR-O,72,Raw,1990,,CT,67.05,135,142.5,150,150,70,75,-77.5,75,170,182.5,192.5,192.5,417.5,,
5,Ewa Januszkiewicz,F,SBD,FR-O,72,Raw,1991,,CT,65.5,137.5,150,155,155,70,77.5,-80,77.5,170,182.5,-187.5,182.5,415,,
6,Megan Himes,F,SBD,FR-O,72,Raw,1998,,NY,69.2,147.5,152.5,157.5,157.5,82.5,-87.5,92.5,92.5,165,-175,-175,165,415,,
7,Ellen Smith,F,SBD,FR-O,72,Raw,1995,,WA,70.1,132.5,140,147.5,147.5,85,90,95,95,150,157.5,165,165,407.5,,
8,Sarah Eby,F,SBD,FR-O,72,Raw,1994,,FL,65.8,115,-122.5,130,130,72.5,80,82.5,82.5,150,162.5,170,170,382.5,,
9,Angela Roark,F,SBD,FR-O,72,Raw,1986,,VA,71.2,125,130,-135,130,80,82.5,-85,82.5,145,152.5,157.5,157.5,370,,
10,Shy Franklin,F,SBD,FR-O,72,Raw,1988,,ID,71.3,125,132.5,-142.5,132.5,72.5,75,-80,75,155,162.5,-172.5,162.5,370,,
11,Kristin Ripley,F,SBD,FR-O,72,Raw,1979,,IN,71.2,115,125,132.5,132.5,67.5,75,82.5,82.5,127.5,142.5,152.5,152.5,367.5,,
12,Theresa Baccielo,F,SBD,FR-O,72,Raw,1988,,CT,70.9,117.5,125,130,130,82.5,87.5,92.5,92.5,127.5,137.5,142.5,142.5,365,,
13,McKayla Griffin,F,SBD,FR-O,72,Raw,1995,,VA,70.2,115,122.5,125,125,72.5,77.5,80,80,142.5,147.5,157.5,157.5,362.5,,
14,Ilona Price,F,SBD,FR-O,72,Raw,1986,,DC,63.65,122.5,127.5,-132.5,127.5,72.5,75,-77.5,75,140,147.5,155,155,357.5,,
15,Greta Eastburn,F,SBD,FR-O,72,Raw,1989,,PA,67.45,105,112.5,120,120,72.5,77.5,-82.5,77.5,140,150,160,160,357.5,,
16,Jackeline Landon,F,SBD,FR-O,72,Raw,1991,,CT,71.2,115,122.5,127.5,127.5,65,70,-72.5,70,140,150,160,160,357.5,,
17,Leah Hardesty,F,SBD,FR-O,72,Raw,1979,,WA,66.9,107.5,115,120,120,55,60,62.5,62.5,147.5,157.5,165,165,347.5,,
18,Clare Michalak,F,SBD,FR-O,72,Raw,1994,,CT,71,102.5,125,140,140,57.5,60,65,65,125,142.5,-150,142.5,347.5,,
19,Kendra Farber,F,SBD,FR-O,72,Raw,1987,,OR,66.4,105,112.5,117.5,117.5,60,65,67.5,67.5,142.5,152.5,160,160,345,,
20,Elia Goffi,F,SBD,FR-O,72,Raw,1997,,MD,70.2,115,122.5,132.5,132.5,65,72.5,-77.5,72.5,130,140,-150,140,345,,
21,Kacey Abaraoha,F,SBD,FR-O,72,Raw,1986,,WA,70.75,-120,120,,120,-70,72.5,-75,72.5,150,-152.5,-157.5,150,342.5,,
22,Angela Bulanda,F,SBD,FR-O,72,Raw,1985,,WA,64.2,95,102.5,112.5,112.5,67.5,-72.5,-72.5,67.5,142.5,152.5,160,160,340,,
23,Serena Goode,F,SBD,FR-O,72,Raw,2001,,OH,64.9,102.5,107.5,112.5,112.5,75,82.5,90,90,122.5,130,137.5,137.5,340,,
24,Jodi Hastings,F,SBD,FR-O,72,Raw,1978,,MN,71.3,110,125,-127.5,125,60,-70,-70,60,137.5,150,152.5,152.5,337.5,,
25,Samantha Rivera,F,SBD,FR-O,72,Raw,1993,,NY,66,107.5,117.5,122.5,122.5,57.5,62.5,65,65,137.5,147.5,-152.5,147.5,335,,
26,Amanda Koldjeski,F,SBD,FR-O,72,Raw,1979,,VA,69.85,90,95,-100,95,85,90,92.5,92.5,130,137.5,142.5,142.5,330,,
27,Jamie Neussendorfer,F,SBD,FR-O,72,Raw,1976,,ID,71.3,107.5,115,-120,115,72.5,-77.5,-80,72.5,135,142.5,-145,142.5,330,,
28,Christine Myers,F,SBD,FR-O,72,Raw,1990,,VA,69.7,95,100,102.5,102.5,-65,67.5,70,70,142.5,150,155,155,327.5,,
29,Emily Gubbins,F,SBD,FR-O,72,Raw,1994,,NY,68.1,117.5,122.5,-127.5,122.5,-70,-72.5,72.5,72.5,125,130,-135,130,325,,
30,Charity Ayre,F,SBD,FR-O,72,Raw,1986,,MD,69.35,115,122.5,-127.5,122.5,67.5,70,72.5,72.5,117.5,125,130,130,325,,
31,Stephanie Young,F,SBD,FR-O,72,Raw,1983,,DC,70.7,110,117.5,122.5,122.5,57.5,60,62.5,62.5,122.5,130,135,135,320,,
32,Tiffany Taylor,F,SBD,FR-O,72,Raw,1989,,WA,64.75,102.5,105,115,115,-57.5,60,-65,60,127.5,132.5,137.5,137.5,312.5,,
33,Crystal Paul,F,SBD,FR-O,72,Raw,1982,,ID,68.1,95,102.5,110,110,52.5,-60,-60,52.5,130,140,147.5,147.5,310,,
34,Jessica French,F,SBD,FR-O,72,Raw,1986,The Iron Maidens,WA,70,100,107.5,112.5,112.5,60,65,67.5,67.5,125,130,-132.5,130,310,,
35,Kimberly Wolff,F,SBD,FR-O,72,Raw,1985,,MN,71.2,112.5,117.5,120,120,60,62.5,65,65,112.5,117.5,122.5,122.5,307.5,,
36,Amanda Weekly,F,SBD,FR-O,72,Raw,1987,,KY,71.6,92.5,100,115,115,55,60,-67.5,60,110,120,130,130,305,,
37,Lisa Schornagel,F,SBD,FR-O,72,Raw,1968,,CT,72,97.5,-105,105,105,57.5,-62.5,62.5,62.5,120,137.5,-140,137.5,305,,
38,Kailan Kalina,F,SBD,FR-O,72,Raw,1992,,ID,68,92.5,102.5,105,105,52.5,57.5,-60,57.5,125,132.5,140,140,302.5,,
39,Laura Williams #1,F,SBD,FR-O,72,Raw,1987,,MN,70.55,92.5,102.5,-105,102.5,57.5,60,62.5,62.5,122.5,132.5,137.5,137.5,302.5,,
40,Emily Steele,F,SBD,FR-O,72,Raw,1994,,PA,64.45,102.5,112.5,-117.5,112.5,60,67.5,-70,67.5,110,117.5,-122.5,117.5,297.5,,
41,Jayla Riley,F,SBD,FR-O,72,Raw,1993,,OH,69.45,82.5,97.5,102.5,102.5,52.5,57.5,62.5,62.5,112.5,122.5,130,130,295,,
42,Angela Jansen,F,SBD,FR-O,72,Raw,1981,,WI,68.95,106.6,-115.7,115.7,115.7,-54.4,59,-61.2,59,106.6,115.7,120.2,120.2,294.9,,
43,Sarah Keough,F,SBD,FR-O,72,Raw,1985,,MA,68.38,92.5,100,-107.5,100,52.5,-57.5,-57.5,52.5,127.5,132.5,140,140,292.5,,
44,Sheila Hahn,F,SBD,FR-O,72,Raw,1990,,OH,68.75,-100,102.5,-107.5,102.5,60,-62.5,-62.5,60,120,125,130,130,292.5,,
45,Celeste Ramirez,F,SBD,FR-O,72,Raw,1991,,WA,71.2,105,110,115,115,55,57.5,-62.5,57.5,102.5,110,117.5,117.5,290,,
46,Alexandria Schraeder,F,SBD,FR-O,72,Raw,1991,,PA,67.3,-100,100,105,105,50,55,57.5,57.5,115,120,125,125,287.5,,
47,Jennifer Hollanitsch,F,SBD,FR-O,72,Raw,1983,,MN,68.65,90,95,-97.5,95,50,55,57.5,57.5,120,127.5,135,135,287.5,,
48,Mariah Hawley,F,SBD,FR-O,72,Raw,1998,,WI,65.68,102.1,108.9,115.7,115.7,43.1,-47.6,-47.6,43.1,108.9,117.9,124.7,124.7,283.5,,
49,Katherine Marini,F,SBD,FR-O,72,Raw,1990,,MN,64.95,85,90,97.5,97.5,40,-47.5,-47.5,40,125,132.5,142.5,142.5,280,,
50,Rebecca Larsen,F,SBD,FR-O,72,Raw,1976,,ID,71.8,97.5,-102.5,-105,97.5,52.5,55,-57.5,55,110,120,127.5,127.5,280,,
51,Anna Gorbachuk,F,SBD,FR-O,72,Raw,1997,,WA,70.95,85,95,-102.5,95,50,55,60,60,97.5,107.5,117.5,117.5,272.5,,
52,Chelsey Clark,F,SBD,FR-O,72,Raw,1985,,WA,69.5,87.5,92.5,-97.5,92.5,50,52.5,55,55,112.5,117.5,122.5,122.5,270,,
53,Chelsey Hill,F,SBD,FR-O,72,Raw,1986,,OR,69.3,85,87.5,95,95,50,52.5,55,55,107.5,112.5,117.5,117.5,267.5,,
54,Jodi Gelineau,F,SBD,FR-O,72,Raw,1970,,MN,66.25,95,102.5,-112.5,102.5,45,-52.5,-52.5,45,102.5,115,-125,115,262.5,,
55,Sara Esperance,F,SBD,FR-O,72,Raw,1984,,WA,67.1,-90,90,-95,90,52.5,55,-60,55,102.5,107.5,115,115,260,,
56,Devan Hodlik,F,SBD,FR-O,72,Raw,1990,,NY,69.1,65,75,77.5,77.5,40,47.5,50,50,107.5,122.5,132.5,132.5,260,,
57,Nicole McGowan,F,SBD,FR-O,72,Raw,1988,,WA,71.25,67.5,75,80,80,47.5,50,-52.5,50,115,122.5,130,130,260,,
58,Danielle Moliassa,F,SBD,FR-O,72,Raw,1986,,WA,71,60,72.5,80,80,47.5,-55,-55,47.5,117.5,130,-142.5,130,257.5,,
59,Jennifer Fidelman,F,SBD,FR-O,72,Raw,1985,,MN,69.65,82.5,-90,-90,82.5,47.5,50,-52.5,50,107.5,115,122.5,122.5,255,,
60,Becky Wortman,F,SBD,FR-O,72,Raw,1980,,WA,70.4,87.5,97.5,-102.5,97.5,52.5,-55,-60,52.5,100,102.5,-110,102.5,252.5,,
61,Laura Ingemi,F,SBD,FR-O,72,Raw,1991,,RI,67.58,-92.5,-92.5,92.5,92.5,-45,47.5,-50,47.5,102.5,105,110,110,250,,
62,Laura Fogarty,F,SBD,FR-O,72,Raw,1990,,OH,69.85,72.5,80,85,85,57.5,60,-62.5,60,95,102.5,-112.5,102.5,247.5,,
63,Danielle Pettygrove,F,SBD,FR-O,72,Raw,1993,Dungeon Strength & Conditioning,MN,65.1,87.5,95,-105,95,47.5,-52.5,-52.5,47.5,92.5,102.5,-110,102.5,245,,
64,Whitney Esguerra,F,SBD,FR-O,72,Raw,1988,,OR,68.6,-82.5,82.5,-87.5,82.5,37.5,40,45,45,100,105,115,115,242.5,,
65,Missy Vircks,F,SBD,FR-O,72,Raw,1981,,WI,71.03,-88.5,-88.5,88.5,88.5,43.1,45.4,-49.9,45.4,93,97.5,102.1,102.1,236,,
66,Stephanie Morris,F,SBD,FR-O,72,Raw,1991,,VA,70.6,62.5,67.5,-75,67.5,37.5,42.5,45,45,82.5,90,97.5,97.5,210,,
67,Kimberly Rush,F,SBD,FR-O,72,Raw,1992,,WA,67.7,60,65,72.5,72.5,30,35,-40,35,90,95,100,100,207.5,,
DQ,Shanna Davi,F,SBD,FR-O,72,Raw,1996,,ID,71.8,62.5,-75,-82.5,62.5,-45,,,,-102.5,,,,,,
1,Amanda Koslow,F,SBD,FR-O,84,Raw,1986,,MD,82.3,160,167.5,172.5,172.5,100,105,107.5,107.5,182.5,192.5,195,195,475,,
2,Christina Linegar,F,SBD,FR-O,84,Raw,1992,,CT,78.7,145,155,-157.5,155,82.5,87.5,92.5,92.5,172.5,185,-192.5,185,432.5,,
3,Jacquelynne Duble,F,SBD,FR-O,84,Raw,1982,,PA,81.25,152.5,160,167.5,167.5,70,77.5,82.5,82.5,165,175,182.5,182.5,432.5,,
4,Caitlin Dunn,F,SBD,FR-O,84,Raw,1987,,CT,82.8,145,155,162.5,162.5,77.5,82.5,87.5,87.5,157.5,167.5,175,175,425,,
5,Liliya Shtikel,F,SBD,FR-O,84,Raw,1989,,WA,81.7,140,152.5,-160,152.5,92.5,-100,-100,92.5,160,170,-175,170,415,,
6,Rachael Courington,F,SBD,FR-O,84,Raw,1976,,MA,82.38,147.5,160,167.5,167.5,65,70,-72.5,70,155,165,175,175,412.5,,
7,Emily Matis,F,SBD,FR-O,84,Raw,1996,,NJ,83.5,130,145,152.5,152.5,62.5,67.5,-75,67.5,160,167.5,185,185,405,,
8,Kelley Triscari,F,SBD,FR-O,84,Raw,1989,,NY,80.7,120,127.5,137.5,137.5,80,82.5,85,85,155,165,172.5,172.5,395,,
9,Patience Miller,F,SBD,FR-O,84,Raw,1997,,CT,82.9,117.5,127.5,-132.5,127.5,85,90,95,95,152.5,162.5,170,170,392.5,,
10,Caroline Moline,F,SBD,FR-O,84,Raw,1993,,WA,83.95,122.5,132.5,142.5,142.5,82.5,87.5,-92.5,87.5,137.5,150,157.5,157.5,387.5,,
11,Nicole Coan,F,SBD,FR-O,84,Raw,1988,,DE,73.15,125,132.5,140,140,77.5,85,-87.5,85,125,135,145,145,370,,
12,Lindsey Anderson,F,SBD,FR-O,84,Raw,1993,,OH,82.25,122.5,132.5,137.5,137.5,75,-80,-80,75,145,155,-160,155,367.5,,
13,Jessica Kemmerer,F,SBD,FR-O,84,Raw,1989,,PA,80.4,127.5,137.5,142.5,142.5,65,70,75,75,137.5,142.5,147.5,147.5,365,,
14,Kelly Kohrs,F,SBD,FR-O,84,Raw,1992,AFLC Powerlifting,MN,83.1,102.5,120,127.5,127.5,55,60,-62.5,60,142.5,152.5,162.5,162.5,350,,
15,Stepfanie Glidewell,F,SBD,FR-O,84,Raw,1988,,WA,80.9,105,112.5,117.5,117.5,-67.5,67.5,70,70,145,152.5,160,160,347.5,,
16,Paula Green,F,SBD,FR-O,84,Raw,1986,,MD,78.35,100,112.5,117.5,117.5,60,67.5,75,75,130,142.5,152.5,152.5,345,,
17,Iajaira Fernandez,F,SBD,FR-O,84,Raw,1978,,VA,72.85,115,120,125,125,65,-70,70,70,137.5,140,145,145,340,,
18,Marissa Painter,F,SBD,FR-O,84,Raw,1993,Spanaway Fitness,WA,79.5,115,120,125,125,62.5,67.5,72.5,72.5,125,135,142.5,142.5,340,,
19,Elizabeth Gesner,F,SBD,FR-O,84,Raw,1987,,OR,82.9,127.5,137.5,140,140,52.5,57.5,-60,57.5,127.5,140,-142.5,140,337.5,,
20,Joslyn Solomon,F,SBD,FR-O,84,Raw,1983,,MN,83.45,110,115,120,120,-60,60,65,65,137.5,147.5,,147.5,332.5,,
21,Renee Gilberti,F,SBD,FR-O,84,Raw,1981,,CT,80.3,107.5,117.5,125,125,60,65,-70,65,140,-150,-150,140,330,,
22,Pira Kwon,F,SBD,FR-O,84,Raw,1994,,OH,83.9,107.5,117.5,130,130,50,57.5,62.5,62.5,-115,125,137.5,137.5,330,,
23,Sara Mayes,F,SBD,FR-O,84,Raw,1991,,PA,78,102.5,-107.5,107.5,107.5,65,67.5,-70,67.5,147.5,152.5,-160,152.5,327.5,,
24,Laura Fernandez,F,SBD,FR-O,84,Raw,1993,,NY,76.5,117.5,125,130,130,47.5,52.5,-57.5,52.5,130,140,142.5,142.5,325,,
25,Jennifer Modaffari,F,SBD,FR-O,84,Raw,1989,,NY,79.7,107.5,112.5,117.5,117.5,65,67.5,-70,67.5,130,135,140,140,325,,
26,Samantha Goode,F,SBD,FR-O,84,Raw,1995,,OH,77.95,112.5,117.5,-127.5,117.5,57.5,62.5,67.5,67.5,115,120,130,130,315,,
27,Eterna Santos,F,SBD,FR-O,84,Raw,1986,,WA,82.4,110,-115,117.5,117.5,-57.5,57.5,-60,57.5,127.5,132.5,137.5,137.5,312.5,,
28,Roxanne Lord,F,SBD,FR-O,84,Raw,1956,,VA,82.85,110,117.5,120,120,52.5,57.5,60,60,110,120,130,130,310,,
29,Sage Majors,F,SBD,FR-O,84,Raw,1994,,WA,78.3,-110,-110,110,110,55,57.5,60,60,120,130,137.5,137.5,307.5,,
30,Emily Stephens,F,SBD,FR-O,84,Raw,1982,,MN,78.95,92.5,100,110,110,52.5,55,62.5,62.5,112.5,122.5,135,135,307.5,,
31,Jana Sterling,F,SBD,FR-O,84,Raw,1988,Spanaway Fitness,WA,83.4,105,110,115,115,50,-55,-55,50,125,132.5,137.5,137.5,302.5,,
32,Colene Quinn,F,SBD,FR-O,84,Raw,1986,,PA,83.8,100,107.5,112.5,112.5,62.5,67.5,-72.5,67.5,122.5,-125,,122.5,302.5,,
33,Michaela Gislason,F,SBD,FR-O,84,Raw,1980,Dungeon Strength & Conditioning,MN,73.9,97.5,110,117.5,117.5,47.5,-52.5,52.5,52.5,110,122.5,127.5,127.5,297.5,,
34,Emily Youngstrand,F,SBD,FR-O,84,Raw,1995,,MN,79.35,87.5,95,102.5,102.5,60,67.5,72.5,72.5,105,115,122.5,122.5,297.5,,
35,Kindall Wittwer,F,SBD,FR-O,84,Raw,1985,,MN,82.4,92.5,102.5,107.5,107.5,50,57.5,-62.5,57.5,120,127.5,-132.5,127.5,292.5,,
36,Jen Jacobs,F,SBD,FR-O,84,Raw,1977,,DC,79.15,82.5,90,97.5,97.5,50,52.5,-55,52.5,122.5,132.5,140,140,290,,
37,Jacalyn Archer,F,SBD,FR-O,84,Raw,1983,,ID,83.2,95,100,107.5,107.5,60,65,-70,65,102.5,110,117.5,117.5,290,,
38,Georgine Fabian Diaz,F,SBD,FR-O,84,Raw,1980,,WA,80.7,95,97.5,100,100,-60,62.5,-65,62.5,115,120,125,125,287.5,,
39,Jenifer Bloodsworth,F,SBD,FR-O,84,Raw,1977,,CT,74.45,97.5,-102.5,102.5,102.5,52.5,55,60,60,112.5,117.5,120,120,282.5,,
40,Kelly Baker,F,SBD,FR-O,84,Raw,1986,,CT,78.1,92.5,100,-105,100,40,47.5,-52.5,47.5,107.5,120,130,130,277.5,,
41,Olympia Church,F,SBD,FR-O,84,Raw,1981,,OR,79,-97.5,102.5,107.5,107.5,42.5,-47.5,47.5,47.5,107.5,115,122.5,122.5,277.5,,
42,Jessica Hudiono,F,SBD,FR-O,84,Raw,1992,,WA,78.6,90,95,100,100,50,60,-65,60,95,105,115,115,275,,
43,Laura Drexel,F,SBD,FR-O,84,Raw,1986,,NY,82.5,90,-92.5,95,95,50,-55,55,55,107.5,112.5,120,120,270,,
44,Megan Weeks,F,SBD,FR-O,84,Raw,1981,,VA,82.34,-97.5,97.5,100,100,55,57.5,60,60,97.5,102.5,107.5,107.5,267.5,,
45,Allison Crane,F,SBD,FR-O,84,Raw,1989,,MA,83.04,85,90,92.5,92.5,57.5,-60,62.5,62.5,97.5,105,110,110,265,,
46,Amanda Morrison,F,SBD,FR-O,84,Raw,1979,,OH,77.7,80,82.5,85,85,45,-47.5,-47.5,45,120,127.5,132.5,132.5,262.5,,
47,Gayle Kinney,F,SBD,FR-O,84,Raw,1984,,WA,83.05,85,90,-95,90,62.5,-65,-65,62.5,107.5,-110,110,110,262.5,,
48,Jessica Litman,F,SBD,FR-O,84,Raw,1993,,VA,83.9,77.5,82.5,90,90,45,52.5,-57.5,52.5,105,117.5,-125,117.5,260,,
49,Claire Mendoza,F,SBD,FR-O,84,Raw,1992,,OR,79.4,85,92.5,95,95,42.5,47.5,-50,47.5,102.5,112.5,115,115,257.5,,
50,Leah Hillebrand,F,SBD,FR-O,84,Raw,1988,,WI,74.84,90.7,-102.1,-102.1,90.7,45.4,-47.6,-47.6,45.4,102.1,108.9,113.4,113.4,249.5,,
51,Caraline Griffith,F,SBD,FR-O,84,Raw,1990,,OH,78.95,85,-97.5,97.5,97.5,40,42.5,45,45,100,-107.5,-112.5,100,242.5,,
52,Mary Bulloch,F,SBD,FR-O,84,Raw,1982,,WA,76.4,-70,72.5,77.5,77.5,40,-45,-45,40,102.5,110,115,115,232.5,,
53,Katie Apodaca,F,SBD,FR-O,84,Raw,1990,Spanaway Fitness,WA,77,70,-82.5,-85,70,37.5,42.5,-45,42.5,92.5,105,112.5,112.5,225,,
54,Yekaterina Grabar,F,SBD,FR-O,84,Raw,1990,,WA,75.7,67.5,-75,80,80,-37.5,42.5,-47.5,42.5,85,90,-115,90,212.5,,
55,Adrian Cooper,F,SBD,FR-O,84,Raw,1989,,WI,72.03,-63.5,63.5,68,68,36.3,38.6,-40.8,38.6,77.1,83.9,88.5,88.5,195.1,,
DQ,Aida Winters,F,SBD,FR-O,84,Raw,1993,,VA,75.9,70,72.5,80,80,42.5,45,-47.5,45,-105,-105,-105,,,,
DQ,Kimberly Alfaro,F,SBD,FR-O,84,Raw,1994,,VA,83.2,175,185,-192.5,185,-62.5,62.5,-70,62.5,-165,,,,,,
DQ,Martina Burton,F,SBD,FR-O,84,Raw,1984,,VA,83.8,-142.5,-142.5,-142.5,,92.5,97.5,-102.5,97.5,165,170,182.5,182.5,,,
DQ,Ann Waldemar,F,SBD,FR-O,84,Raw,1983,,CT,84,-125,-125,-125,,55,57.5,60,60,102.5,105,-115,105,,,
1,Kirsten Boumil,F,SBD,FR-O,84+,Raw,1990,,NY,127.1,160,165,-172.5,165,67.5,72.5,80,80,-205,205,-207.5,205,450,,
2,Destiny Siguenza,F,SBD,FR-O,84+,Raw,1984,,WA,119.9,125,150,-160,150,85,92.5,-95,92.5,177.5,187.5,195,195,437.5,,
3,Cynthia Hindermann,F,SBD,FR-O,84+,Raw,1985,Northern White Lights,MN,119.1,145,160,-167.5,160,77.5,85,87.5,87.5,175,-197.5,-197.5,175,422.5,,
4,Mara Sickles,F,SBD,FR-O,84+,Raw,1994,,NY,129.2,125,130,135,135,75,80,-85,80,177.5,185,195,195,410,,
5,Janie Soehl,F,SBD,FR-O,84+,Raw,1988,,MA,89.9,130,140,142.5,142.5,80,85,90,90,160,170,-182.5,170,402.5,,
6,Elizabeth Berg,F,SBD,FR-O,84+,Raw,1984,,MN,104.3,125,135,145,145,72.5,80,-82.5,80,157.5,167.5,175,175,400,,
7,Shannon Callahan,F,SBD,FR-O,84+,Raw,1990,,MN,111.1,142.5,147.5,152.5,152.5,75,80,-85,80,162.5,-170,-170,162.5,395,,
8,Ashley Donahue,F,SBD,FR-O,84+,Raw,1985,,IN,98.55,115,125,140,140,80,90,-100,90,135,155,-175,155,385,,
9,Sara Ibis,F,SBD,FR-O,84+,Raw,1984,,MT,106.8,147.5,157.5,-162.5,157.5,-60,62.5,-65,62.5,150,160,-165,160,380,,
10,Chloe Mason,F,SBD,FR-O,84+,Raw,1993,,WA,124.25,125,132.5,-137.5,132.5,80,85,-90,85,162.5,-170,-170,162.5,380,,
11,Mishon Montgomery,F,SBD,FR-O,84+,Raw,1983,,NV,88.8,-95,-107.5,110,110,80,85,-90,85,165,172.5,182.5,182.5,377.5,,
12,Presley Gibson,F,SBD,FR-O,84+,Raw,1995,,MD,95.05,140,145,-155,145,75,-80,-80,75,140,150,-155,150,370,,
13,Khanh Hoang,F,SBD,FR-O,84+,Raw,1998,,MD,94.95,137.5,145,150,150,50,55,57.5,57.5,145,155,160,160,367.5,,
14,Fatima Shafer,F,SBD,FR-O,84+,Raw,1991,,ID,126.2,115,-125,140,140,75,80,-87.5,80,125,132.5,147.5,147.5,367.5,,
15,Jemima Richards,F,SBD,FR-O,84+,Raw,1990,,MA,92,125,132.5,137.5,137.5,65,67.5,-70,67.5,137.5,147.5,157.5,157.5,362.5,,
16,Zahara Moore,F,SBD,FR-O,84+,Raw,1989,,NY,103.7,117.5,125,137.5,137.5,65,72.5,-75,72.5,135,142.5,152.5,152.5,362.5,,
17,Teresa King,F,SBD,FR-O,84+,Raw,1986,,CA,104.7,110,125,130,130,70,75,80,80,130,140,145,145,355,,
18,Brandi Morhardt,F,SBD,FR-O,84+,Raw,1986,,WA,92.8,105,115,122.5,122.5,60,-70,-70,60,152.5,-165,165,165,347.5,,
19,Haley Urling-Ehinger,F,SBD,FR-O,84+,Raw,1991,,WA,86.2,117.5,122.5,-127.5,122.5,67.5,72.5,-75,72.5,125,132.5,137.5,137.5,332.5,,
20,Alexandra Billie,F,SBD,FR-O,84+,Raw,1982,,NM,90.1,65,95,100,100,45,52.5,60,60,117.5,160,162.5,162.5,322.5,,
21,Barbara Ann Hudrick,F,SBD,FR-O,84+,Raw,1982,,PA,116.5,140,150,-162.5,150,45,52.5,55,55,102.5,115,-130,115,320,,
22,Alexis Keith,F,SBD,FR-O,84+,Raw,1997,,VA,97.55,-105,-105,105,105,67.5,72.5,-75,72.5,127.5,137.5,-145,137.5,315,,
23,Stephanie Baker,F,SBD,FR-O,84+,Raw,1980,,NY,104.1,95,100,107.5,107.5,62.5,65,67.5,67.5,125,132.5,140,140,315,,
24,Christina Paugh,F,SBD,FR-O,84+,Raw,1983,,VA,111.25,120,-130,-130,120,62.5,65,-70,65,130,-140,-140,130,315,,
25,Amelia Rosegrant,F,SBD,FR-O,84+,Raw,1988,,VA,105.9,90,105,112.5,112.5,52.5,60,67.5,67.5,117.5,127.5,-142.5,127.5,307.5,,
26,Veronica Fleming,F,SBD,FR-O,84+,Raw,1988,,PA,101.1,100,110,115,115,50,55,-60,55,120,130,135,135,305,,
27,Marci Stein,F,SBD,FR-O,84+,Raw,1980,,MN,100.25,100,107.5,112.5,112.5,57.5,60,62.5,62.5,115,120,125,125,300,,
28,Hope Shorter,F,SBD,FR-O,84+,Raw,1966,,MD,88.14,70,77.5,82.5,82.5,42.5,50,55,55,125,135,152.5,152.5,290,,
29,Hannah Bell,F,SBD,FR-O,84+,Raw,1995,,WA,84.3,87.5,97.5,-105,97.5,52.5,-57.5,-57.5,52.5,117.5,130,137.5,137.5,287.5,,
30,Sabrina Simpson,F,SBD,FR-O,84+,Raw,1995,,VA,103.45,95,100,110,110,57.5,-62.5,-62.5,57.5,105,112.5,115,115,282.5,,
31,Anna Mae Lange,F,SBD,FR-O,84+,Raw,1993,,WI,128.95,90,100,110,110,42.5,47.5,-57.5,47.5,92.5,107.5,117.5,117.5,275,,
32,Kayla Wright,F,SBD,FR-O,84+,Raw,1989,,OR,93,97.5,-105,-105,97.5,45,50,-55,50,107.5,112.5,120,120,267.5,,
33,Elizabeth Conlin,F,SBD,FR-O,84+,Raw,1980,Salutem Powerlifting,MN,149.85,62.5,67.5,72.5,72.5,60,65,70,70,105,115,125,125,267.5,,
34,Leanne Recla,F,SBD,FR-O,84+,Raw,1981,,PA,93.8,-82.5,82.5,-87.5,82.5,52.5,57.5,62.5,62.5,97.5,105,112.5,112.5,257.5,,
35,Jernai Ellis,F,SBD,FR-O,84+,Raw,1989,,VA,119.15,-80,-85,85,85,52.5,57.5,-60,57.5,105,-112.5,112.5,112.5,255,,
36,Carole Fleetwood,F,SBD,FR-O,84+,Raw,1993,,WI,150.59,52.2,61.2,70.3,70.3,43.1,-47.6,54.4,54.4,104.3,111.1,117.9,117.9,242.6,,
37,Amarili Bueno-Verdugo,F,SBD,FR-O,84+,Raw,1990,,WA,133.4,67.5,70,75,75,47.5,50,-55,50,87.5,92.5,102.5,102.5,227.5,,
38,Aminah Williams,F,SBD,FR-O,84+,Raw,1982,,MD,93.75,62.5,-70,70,70,50,-52.5,55,55,85,90,95,95,220,,
39,Melissa Falness,F,SBD,FR-O,84+,Raw,1982,,MN,97.25,45,50,55,55,35,37.5,40,40,85,90,97.5,97.5,192.5,,
DQ,Alexandra Lovelace,F,SBD,FR-O,84+,Raw,1993,,VA,98,70,75,80,80,42.5,45,47.5,47.5,-105,-107.5,-107.5,,,,
DQ,Emily Quell,F,SBD,FR-O,84+,Raw,1987,,NY,101,-70,70,92.5,92.5,-55,-65,-65,,107.5,115,125,125,,,
DQ,Heather Stearns,F,SBD,FR-O,84+,Raw,1984,,OR,125,57.5,65,-75,65,-45,-50,-50,,-110,117.5,122.5,122.5,,,
1,Cora Vircks,F,SBD,FR-T1,52,Raw,2004,,WI,47.81,-54.4,-54.4,54.4,54.4,20.4,22.7,27.2,27.2,79.4,86.2,-90.7,86.2,167.8,,
1,Peyton Meyers,F,SBD,FR-T2,52,Raw,2001,,WI,51.8,65.8,-70.3,-70.3,65.8,29.5,31.8,-36.3,31.8,99.8,-102.1,-102.1,99.8,197.4,,
1,Shelby Lewis,F,SBD,FR-T3,84+,Raw,2000,,WI,99.07,133.8,142.9,147.4,147.4,68,74.8,79.4,79.4,149.7,165.6,174.6,174.6,401.4,,
1,Elizabeth Bourassa,F,SBD,FR-T,47,Raw,2002,,OH,45.8,60,70,80,80,42.5,47.5,-50,47.5,90,102.5,117.5,117.5,245,,
2,Taiya Hansen,F,SBD,FR-T,47,Raw,2003,,WA,44.6,70,75,80,80,30,32.5,35,35,80,85,90,90,205,,
1,Caitlin Ludford,F,SBD,FR-T,57,Raw,2002,,MA,55.7,87.5,97.5,-102.5,97.5,45,47.5,52.5,52.5,90,97.5,102.5,102.5,252.5,,
2,Carringtin Dietz,F,SBD,FR-T,57,Raw,2000,,WA,53.7,70,72.5,77.5,77.5,45,-47.5,-47.5,45,110,117.5,122.5,122.5,245,,
3,Alexandra Garvin,F,SBD,FR-T,57,Raw,2005,,ID,55.5,45,52.5,57.5,57.5,50,57.5,-60,57.5,72.5,80,82.5,82.5,197.5,,
1,Herron Bartz,F,SBD,FR-T,63,Raw,1999,,MN,58.8,97.5,105,110,110,50,57.5,-60,57.5,107.5,115,120,120,287.5,,
2,Cora Haefner,F,SBD,FR-T,63,Raw,2001,,VA,62.25,70,77.5,85,85,42.5,47.5,52.5,52.5,72.5,80,87.5,87.5,225,,
DQ,Morgan Stocker,F,SBD,FR-T,63,Raw,1999,,OH,61.4,105,115,120,120,-65,-70,-70,,125,130,137.5,137.5,,,
1,Serena Goode,F,SBD,FR-T,72,Raw,2001,,OH,64.9,102.5,107.5,112.5,112.5,75,82.5,90,90,122.5,130,137.5,137.5,340,,
1,Rachael Mooney,F,SBD,FR-T,84,Raw,2001,,OR,81.9,125,-132.5,132.5,132.5,70,-75,-75,70,107.5,112.5,117.5,117.5,320,,
2,Kassidy Snell,F,SBD,FR-T,84,Raw,2001,,WI,75.75,85,92.5,102.5,102.5,47.5,52.5,-57.5,52.5,102.5,112.5,120,120,275,,
3,Isabela Valdenegro,F,SBD,FR-T,84,Raw,2001,,WA,77.85,75,-77.5,77.5,77.5,-47.5,47.5,-52.5,47.5,110,112.5,115,115,240,,
1,Olivia Kinney,F,SBD,FR-Y,35,Raw,2009,Spanaway Fitness,WA,34.2,20,25,27.5,27.5,20,22.5,25,25,47.5,52.5,55,55,107.5,,
2,Naomi Levenson,F,SBD,FR-Y,35,Raw,2008,,VA,34.35,20,25,30,30,15,20,-22.5,20,40,47.5,50,50,100,,
1,Sloane Petersen,F,SBD,FR-Y,40,Raw,2008,,OH,39.1,22.5,27.5,32.5,32.5,15,17,-21,17,35,42.5,45,45,94.5,,
1,Avery Lamb,F,SBD,FR-Y,63,Raw,2006,,OH,60.35,67.5,70,-77.5,70,25,30,32.5,32.5,80,85,95,95,197.5,,
1,Jessica Fargnoli,F,SBD,FR-Y,72,Raw,2005,,CT,68.6,107.5,115,117.5,117.5,52.5,57.5,-60,57.5,132.5,140,145,145,320,,
1,Alice Blair,F,BD,FR-M1,84+,Raw,1971,,OR,96.5,,,,,75,77.5,82.5,82.5,122.5,132.5,137.5,137.5,220,,
1,Pamela Freund,F,BD,FR-M3,84+,Raw,1958,,VA,156.55,,,,,40,47.5,52.5,52.5,85,95,102.5,102.5,155,,
1,Carol Miles,F,BD,FR-M5,57,Raw,1932,,MA,56.8,,,,,20,25,-30,25,32.5,37.5,42.5,42.5,67.5,,
1,Christina Rose,F,BD,FR-O,72,Raw,1975,,PA,66.6,,,,,62.5,70,-72.5,70,102.5,115,-120,115,185,,
1,Mishon Montgomery,F,BD,FR-O,84+,Raw,1983,,NV,88.8,,,,,80,85,-90,85,165,172.5,182.5,182.5,267.5,,
